Destination,Prefix,First Interval,Sub Interval,Rate,Status,Start Date,End Date
UNITED STATES,1,6,6,0.0049,Current,2011-12-08 12:58:00,
UNITED STATES - ALASKA,1907,6,6,0.0510,Current,2011-12-08 12:58:00,
UNITED STATES - HAWAII,1808,6,6,0.0257,Current,2011-12-08 12:58:00,
UNITED STATES - TOLL FREE,1800,6,6,0.0000,Current,2011-12-08 12:58:00,
UNITED STATES - TOLL FREE,1855,6,6,0.0000,Current,2011-12-08 12:58:00,
UNITED STATES - TOLL FREE,1866,6,6,0.0000,Current,2011-12-08 12:58:00,
UNITED STATES - TOLL FREE,1877,6,6,0.0000,Current,2011-12-08 12:58:00,
UNITED STATES - TOLL FREE,1888,6,6,0.0000,Current,2011-12-08 12:58:00,
